date,presenter,topic
2017-06-05,Henry Partridge,Spatial date in R
2017-09-27,Marco Smolla,Future Directions of RUM
2016-11-07,Bede Constantinides,Plot.ly
2016-11-07,Ralf Becker,Teaching with R
2016-12-05,Paul Johnston,Text mining in R
2017-02-06,Syed Murtuza Baker,Leaflet for interactive maps
2017-02-06,Reka Solymosi,Discussion about R in teaching clusters
2017-04-03,Miguel Belmonte,Wavethresh package for time series date
2017-05-08,Glen Martin \& William Hulme,Missing date with MICE package
